<!-- Generator: Adobe Illustrator 22.0.0, SVG Export Plug-In  -->
<svg version="1.1"
	 xmlns="http://www.w3.org/2000/svg" xmlns:xlink="http://www.w3.org/1999/xlink" xmlns:a="http://ns.adobe.com/AdobeSVGViewerExtensions/3.0/"
	 x="0px" y="0px" width="18.4px" height="22px" viewBox="0 0 18.4 22" style="enable-background:new 0 0 18.4 22;"
	 xml:space="preserve">
<style type="text/css">
	.st0{fill:#333333;}
</style>
<defs>
</defs>
<g>
	<path class="st0" d="M16.5,14.5c-0.6-0.3-1.3-0.6-2.1-0.9c-0.4-0.1-0.7-0.2-0.9-0.3c-0.4-0.1-0.8-0.2-1.2-0.3
		c-0.3-0.4-0.6-0.8-0.7-1.3c0.9-0.7,1.6-1.7,1.9-3c0.2,0,0.3-0.1,0.5-0.2c0.3-0.3,0.5-0.8,0.6-1.3c0-0.4,0-0.8-0.2-1.1
		c0.1-0.4,0.1-0.8,0.1-1.3c0-3-2.1-4.9-5.4-4.9C5.9,0,3.8,1.9,3.8,4.9c0,0.4,0,0.9,0.1,1.3C3.8,6.4,3.7,6.8,3.7,7.3
		c0,0.6,0.3,1,0.6,1.3c0.1,0.1,0.3,0.2,0.5,0.2c0.4,1.2,1.1,2.3,1.9,3c-0.1,0.5-0.3,1-0.7,1.3c-0.7,0.1-1.1,0.2-1.1,0.2
		c-0.3,0.1-0.6,0.2-1,0.3c-0.8,0.2-1.5,0.5-2.1,0.9C0.7,15,0,16.2,0,17.4v0.9c0,0.8,0.5,1.6,1.2,2c1.4,0.8,4,1.7,8,1.7
		c4,0,6.5-0.9,8-1.7c0.7-0.4,1.2-1.2,1.2-2v-0.9C18.4,16.2,17.7,15,16.5,14.5z M9.2,0.7c2.9,0,4.8,1.6,4.8,4.2c0,0.2,0,0.5-0.1,0.7
		c0,0-0.1,0-0.1,0c-0.2,0-0.4,0-0.5,0c-0.1-0.2-0.2-0.6-0.4-1.3c0,0,0,0,0,0c0,0,0,0,0-0.1c0,0,0,0,0,0c0,0,0,0,0,0
		c-1-0.8-2.7-0.8-3.7,0C8.2,4.7,6.9,4.7,6,4.1c0,0,0,0,0,0c0,0,0,0,0,0c0,0,0,0,0,0c0,0,0,0-0.1,0c0,0,0,0-0.1,0c0,0,0,0-0.1,0
		c0,0,0,0-0.1,0c0,0,0,0,0,0c0,0,0,0,0,0c0,0,0,0,0,0c0,0,0,0,0,0c0,0,0,0,0,0c-0.2,0.6-0.4,1-0.4,1.3c-0.1,0-0.3,0-0.5,0
		c0,0,0,0-0.1,0c0-0.2-0.1-0.5-0.1-0.7C4.4,2.3,6.3,0.7,9.2,0.7z M5.3,8.3c0-0.1-0.1-0.2-0.2-0.2s-0.2,0-0.3,0c0,0-0.1,0-0.1,0
		C4.6,7.9,4.4,7.6,4.4,7.2c0-0.5,0.1-0.9,0.4-1c0.2,0,0.3,0,0.4,0.1c0,0,0.1,0,0.1,0c0.1,0,0.2,0,0.3,0C5.6,6.2,5.6,6.1,5.6,6
		c0-0.1,0.2-0.6,0.4-1.1c0.5,0.2,1,0.3,1.5,0.3c0.7,0,1.3-0.2,1.9-0.6c0.8-0.6,2-0.6,2.9,0c0.2,0.6,0.5,1.3,0.5,1.4
		c0,0.1,0.1,0.2,0.1,0.2c0.1,0.1,0.2,0.1,0.3,0c0,0,0.1,0,0.1,0c0.1,0,0.2-0.1,0.4-0.1c0.2,0.1,0.4,0.5,0.4,1c0,0.4-0.2,0.7-0.3,0.9
		c0,0-0.1,0.1-0.2,0c-0.1,0-0.2,0-0.3,0c-0.1,0-0.2,0.1-0.2,0.2c-0.3,1.3-1,2.3-1.9,3c-1.2,0.9-2.7,0.9-3.9,0
		C6.3,10.6,5.7,9.6,5.3,8.3z M7.3,12.1c0.6,0.3,1.2,0.5,1.9,0.5c0.6,0,1.3-0.2,1.9-0.5c0.1,0.5,0.4,1,0.8,1.3
		c-0.2,0.5-1.4,1.6-2.6,2.3C8,15,6.7,14,6.6,13.5C6.9,13.1,7.2,12.6,7.3,12.1z M0.7,18.4v-0.9c0-1,0.6-1.9,1.5-2.4
		c0.6-0.3,1.3-0.6,2-0.8c0,0,0.9-0.3,0.9-0.3c0,0,0.4-0.1,0.9-0.2c0.4,1,2.2,2.2,2.9,2.6v5c-3.9,0-6.3-1-7.3-1.6
		C1,19.5,0.7,18.9,0.7,18.4z M12.4,13.7c0.3,0.1,0.6,0.1,0.9,0.2c0,0,0.9,0.3,0.9,0.3c0.7,0.2,1.4,0.5,2,0.8
		c0.9,0.5,1.5,1.4,1.5,2.4v0.9c0,0.6-0.3,1.1-0.8,1.4c-1.1,0.6-3.5,1.5-7.3,1.6v-5C10.2,16,12,14.7,12.4,13.7"/>
</g>
</svg>
