<?xml version="1.0" standalone="no"?>
<!DOCTYPE svg PUBLIC "-//W3C//DTD SVG 20010904//EN"
 "http://www.w3.org/TR/2001/REC-SVG-20010904/DTD/svg10.dtd">
<svg version="1.0" xmlns="http://www.w3.org/2000/svg"
 width="1024.000000pt" height="1024.000000pt" viewBox="0 0 1024.000000 1024.000000"
 preserveAspectRatio="xMidYMid meet">
<metadata>
Created by potrace 1.11, written by Peter Selinger 2001-2013
</metadata>
<g transform="translate(0.000000,1024.000000) scale(0.100000,-0.100000)"
fill="#000000" stroke="none">
<path d="M4908 10235 c-2 -2 -46 -6 -98 -9 -52 -4 -111 -9 -130 -11 -19 -3
-54 -7 -77 -10 -48 -6 -107 -14 -143 -21 -14 -2 -41 -7 -60 -10 -19 -3 -48 -7
-65 -10 -81 -13 -447 -106 -495 -126 -14 -6 -56 -21 -95 -33 -59 -20 -131 -47
-240 -90 -11 -5 -22 -9 -25 -10 -15 -5 -134 -61 -192 -91 -38 -18 -68 -30 -68
-26 0 4 -4 2 -8 -4 -4 -6 -40 -28 -81 -49 -41 -20 -81 -43 -88 -51 -8 -8 -19
-14 -25 -14 -21 0 -319 -194 -326 -212 -2 -4 -10 -8 -17 -8 -8 0 -20 -6 -27
-13 -7 -6 -49 -39 -93 -72 -44 -33 -83 -63 -86 -68 -3 -4 -19 -17 -36 -30 -84
-62 -343 -310 -458 -438 -27 -31 -65 -72 -83 -92 -17 -20 -32 -39 -32 -42 0
-3 -8 -13 -17 -23 -37 -38 -63 -72 -63 -82 0 -6 -4 -10 -8 -10 -5 0 -24 -21
-42 -47 -93 -129 -110 -155 -110 -163 0 -4 -4 -10 -8 -12 -8 -3 -122 -174
-122 -183 0 -2 -24 -44 -53 -92 -55 -92 -153 -287 -205 -408 -95 -221 -205
-549 -227 -675 -2 -14 -9 -43 -15 -65 -15 -57 -20 -76 -26 -110 -2 -16 -7 -41
-9 -55 -3 -14 -7 -36 -10 -50 -2 -13 -7 -40 -10 -60 -3 -20 -7 -46 -9 -57 -4
-20 -12 -84 -21 -168 -14 -131 -19 -244 -19 -460 1 -287 10 -435 40 -629 3
-23 8 -54 10 -71 5 -34 16 -93 34 -175 6 -30 13 -66 16 -80 18 -92 95 -359
137 -472 14 -38 23 -68 20 -68 -4 0 1 -8 10 -17 8 -10 15 -22 15 -26 -1 -40
205 -472 280 -587 9 -14 17 -27 17 -30 1 -7 48 -81 124 -193 36 -54 71 -106
76 -115 6 -9 13 -19 16 -22 3 -3 34 -43 69 -90 35 -47 69 -90 75 -96 5 -7 33
-38 60 -70 76 -88 179 -197 297 -314 59 -58 741 -738 1517 -1512 1288 -1287
1412 -1408 1441 -1408 30 0 152 120 1431 1398 769 768 1461 1458 1536 1533
163 161 233 236 233 249 0 6 4 10 8 10 5 0 48 51 97 113 49 61 94 117 102 123
7 6 13 15 13 20 0 5 15 28 33 51 54 69 112 158 109 166 -1 4 2 7 6 7 5 0 19
19 32 43 13 23 26 44 29 47 3 3 12 15 19 28 6 12 18 32 25 45 6 12 14 24 17
27 12 12 167 316 194 380 11 25 30 70 44 100 13 30 40 98 59 150 19 52 38 104
43 115 8 18 23 63 25 75 0 3 11 39 25 80 13 41 24 80 26 85 1 6 10 39 19 75
25 100 55 232 60 265 2 17 7 41 10 55 6 30 11 57 22 125 9 61 10 1140 1 1175
-4 14 -9 45 -12 69 -7 62 -55 302 -70 346 -1 6 -7 28 -11 50 -11 49 -10 47
-18 65 -3 8 -13 42 -22 75 -9 33 -19 67 -22 75 -3 8 -7 20 -8 25 -17 68 -165
448 -177 453 -4 2 -8 10 -8 18 0 18 -168 347 -182 355 -5 3 -10 10 -10 15 0
25 -170 285 -282 433 -39 52 -80 106 -91 121 -19 26 -87 105 -170 198 -93 105
-296 301 -400 387 -33 28 -65 55 -71 60 -6 6 -26 21 -44 35 -18 14 -42 33 -54
42 -11 10 -25 21 -31 26 -5 4 -39 28 -75 52 -36 25 -67 48 -70 51 -7 8 -185
122 -265 170 -114 68 -498 259 -520 259 -4 0 -21 6 -38 14 -18 7 -45 19 -62
26 -46 19 -285 100 -309 105 -11 2 -21 4 -21 5 0 1 -7 3 -15 5 -8 2 -40 11
-70 20 -30 9 -64 18 -75 20 -11 1 -47 10 -80 18 -33 9 -73 18 -90 21 -16 2
-30 5 -30 6 0 1 -13 4 -30 6 -16 3 -70 12 -118 20 -48 8 -92 12 -97 9 -5 -3
-11 -1 -14 3 -3 5 -20 10 -38 11 -18 1 -49 4 -68 6 -90 12 -184 16 -422 20
-141 1 -258 2 -260 0z m487 -2459 c22 -4 49 -9 60 -12 11 -3 34 -7 50 -10 53
-9 178 -44 250 -70 39 -14 75 -27 81 -28 7 -1 18 -7 25 -12 8 -6 30 -17 49
-24 19 -8 57 -27 83 -42 26 -15 50 -28 53 -28 8 0 119 -74 196 -132 75 -57
215 -190 291 -279 37 -43 177 -243 177 -252 0 -3 16 -33 34 -66 19 -34 32 -61
28 -61 -4 0 -2 -4 4 -8 22 -15 116 -287 140 -406 10 -49 25 -151 30 -199 10
-108 4 -358 -10 -406 -3 -9 -8 -40 -11 -69 -3 -29 -10 -63 -15 -77 -5 -14 -8
-25 -5 -25 2 0 -2 -18 -10 -40 -8 -22 -15 -44 -15 -48 -2 -19 -13 -58 -19 -67
-4 -5 -13 -28 -20 -50 -22 -66 -97 -231 -111 -245 -3 -3 -14 -23 -25 -44 -11
-22 -25 -47 -32 -55 -6 -9 -45 -61 -86 -116 -102 -138 -214 -251 -383 -384
-26 -21 -141 -97 -169 -112 -137 -75 -311 -151 -375 -164 -8 -2 -15 -4 -15 -5
0 -1 -7 -3 -15 -5 -8 -1 -35 -8 -60 -15 -25 -7 -52 -14 -61 -15 -33 -7 -95
-17 -119 -20 -14 -2 -47 -7 -75 -10 -61 -8 -271 -9 -340 -1 -141 16 -161 18
-170 24 -5 4 -19 7 -30 7 -32 1 -83 15 -185 48 -52 17 -97 31 -100 32 -3 0
-16 7 -30 15 -14 7 -25 12 -25 10 0 -9 -250 122 -275 145 -9 8 -20 15 -23 15
-33 0 -324 264 -402 365 -16 21 -34 43 -40 49 -23 25 -75 105 -75 115 0 6 -4
11 -9 11 -5 0 -13 10 -17 23 -4 12 -9 24 -13 27 -3 3 -11 14 -17 25 -32 60
-64 124 -76 153 -7 17 -16 32 -20 32 -5 0 -7 3 -6 8 2 8 -8 46 -22 77 -8 20
-19 53 -19 58 0 1 -10 29 -21 61 -11 33 -20 69 -20 81 0 12 -3 25 -7 29 -4 3
-8 19 -9 34 -3 30 -9 64 -23 136 -9 50 -8 422 2 466 3 14 8 41 11 60 18 112
58 265 86 325 11 24 27 67 29 78 4 28 158 306 181 327 3 3 30 39 61 80 58 78
208 233 269 279 19 14 42 33 50 41 8 8 42 33 75 55 33 22 62 43 63 48 2 4 10
7 17 7 8 0 20 6 27 13 13 13 180 98 244 125 50 20 234 81 234 77 0 -2 15 1 33
6 17 5 48 12 67 15 19 3 37 7 40 9 3 2 37 6 75 10 39 4 72 9 74 11 6 5 372 -4
416 -10z"/>
</g>
</svg>
